  2D VERTICAL INFILTRATION BENCHMARK PROBLEM
  FILES:  ASCII, BINARY, SUMMARY, RESTART OUTPUT, RESTART INPUT
  T  T  T  F  F
  MODEL TYPE AND NUMBER OF GRID BLOCKS IN X, Y, AND Z
     2   21   19    1
  TSTART,   TMAX,      MAXSTEPS
   0.0   3.1557E+11  20000   3.15569300000000E+07   3.16887700000000E-08 
  DT_INIT,  DT_MIN,   DT_MAX,   DT_INCR, IAUTODT, TSWITCH
   8.6400E+00   8.6400E-04   1.7280E+09   1.2500E+00  1     1.0000E-02
  TIME-STEP CHANGES: NUMBER OF CHANGES, TIME OF CHANGE, DELT USED
   0
  IPRTYPEASC IPRTYPEBIN IPRTYPERST UNITSI UNITSO
     2    2    0    'SI'     'SI'
  ASCII PRINTOUT CONTROLLED BY USER SPECIFIED TIMES
    27
  USER REQUESTED PRINTOUT TIMES
    0.0000E+00
    3.1557E+07
    6.3114E+07
    9.4671E+07
    1.2623E+08
    1.5778E+08
    1.8934E+08
    2.2090E+08
    2.5246E+08
    2.8401E+08
    3.1557E+08
    6.3114E+08
    9.4671E+08
    1.2623E+09
    1.5778E+09
    1.8934E+09
    2.2090E+09
    2.5246E+09
    2.8401E+09
    3.1557E+09
    1.1045E+10
    3.1557E+10
    9.4671E+10
    1.5778E+11
    2.2090E+11
    2.8401E+11
    3.1557E+11
  BINARY PRINOUT CONTROLLED BY USER SPECIFIED TIMES
    27
  USER SPECIFIED TIMES 
    0.0000E+00
    3.1557E+07
    6.3114E+07
    9.4671E+07
    1.2623E+08
    1.5778E+08
    1.8934E+08
    2.2090E+08
    2.5246E+08
    2.8401E+08
    3.1557E+08
    6.3114E+08
    9.4671E+08
    1.2623E+09
    1.5778E+09
    1.8934E+09
    2.2090E+09
    2.5246E+09
    2.8401E+09
    3.1557E+09
    1.1045E+10
    3.1557E+10
    9.4671E+10
    1.5778E+11
    2.2090E+11
    2.8401E+11
    3.1557E+11
  RESTART PRINTOUT CONTROLLED BY USER SPECIFIED TIMES
    100
  ASCII PRINT FLAGS
  1 1 0 0 0  0 1 1 1 1  0 0 0 0 0  0 1 1 0 0  0 0 0 0 0
  0 0 0 0 0  0 0 0 0 0  0 0 0 0 0  0 0 0 0 0  0 0 0 0 0
  0 0 0 0 0  0 0 0 0 0  0 0 0 0 0  0 0 0 0 0  0 0 0 0 0
  0 0 0 0 0  0 0 0 0 0  0 0 0 0 0  0 0 0 0 0  0 0 0 0 0
  0 0 0 0 0  0 0 
  BINARY PRINT FLAGS
  1 1 0 0 0  0 1 1 1 1  0 0 0 0 0  0 1 1 0 0  0 0 0 0 0
  0 0 0 0 0  0 0 0 0 0  0 0 0 0 0  0 0 0 0 0  0 0 0 0 0
  0 0 0 0 0  0 0 0 0 0  0 0 0 0 0  0 0 0 0 0  0 0 0 0 0
  0 0 0 0 0  0 0 0 0 0  0 0 0 0 0  0 0 0 0 0  0 0 0 0 0
  0 0 0 0 0  0 0 
  HISTORY VARIABLES
  0
  MONITOR PARAMETER VALUES AT 1 GRIDBLOCK
  T
  NUMBER OF MONITOR BLOCKS
     1
  MONITOR BLOCK (I,J,K)
     1   10     1
  GRID DATA FLAGS: IDXFLAG, IDYFLAG, IDZFLAG, IDEPTHFLAG
     1    2    1   -3
  GRID DATA CARDS: GRID BLOCK DX'S
     0.115  0.15  0.15   0.085 0.075 0.14  0.15  0.15  0.15  0.15  
     0.15   0.15  0.15   0.15  0.15  0.155 0.18  0.20  0.20  0.20
     0.0001 
  GRID DATA CARDS: GRID BLOCK DY'S
     0.30  0.20  0.10  0.05  0.05  0.10  0.10  0.10  0.10  0.10
     0.10  0.10  0.10  0.10  0.10  0.10  0.10  0.10
     0.0001
  GRID DATA CARDS: GRID BLOCK DZ'S
     21*1.0
  GRID DATA CARDS: IORG, JORG, KORG, DEPTH, THETAX, THETAY, THETAZ
     1    1    1   0.000000E+00 9.000000E+01 0.000000E+00 0.000000E+00
  WELL DATA
   0  
  DIRICHLET CONDITIONS
  T  8 
  1 19 1 T T 0.10157478D+06 0.1000000D+01
  2 19 1 T T 0.10157478D+06 0.1000000D+01
  3 19 1 T T 0.10157478D+06 0.1000000D+01
  4 19 1 T T 0.10157478D+06 0.1000000D+01
  21 1 1 F T 0.10622565D+06 0.1000000D+01
  21 2 1 F T 0.10377783D+06 0.1000000D+01
  21 3 1 F T 0.10230913D+06 0.1000000D+01
  21 4 1 F T 0.10157478D+06 0.1000000D+01
  GRID BLOCK BRINE PRESSURE INITIAL CONDITIONS
  21*0.10622565D+06
  21*0.10377783D+06
  21*0.10230913D+06
  21*0.10157478D+06
  20*0.10108522D+06  0.101330D+06
  20*0.10035087D+06  0.101330D+06
  20*0.99371738D+05  0.101330D+06
  20*0.98392607D+05  0.101330D+06
  20*0.97413476D+05  0.101330D+06
  20*0.96434346D+05  0.101330D+06
  20*0.95455215D+05  0.101330D+06
  20*0.94476084D+05  0.101330D+06
  20*0.93496953D+05  0.101330D+06
  20*0.92517822D+05  0.101330D+06
  20*0.91538691D+05  0.101330D+06
  20*0.90559560D+05  0.101330D+06
  20*0.89580429D+05  0.101330D+06
  20*0.88601299D+05  0.101330D+06
  4*0.10157478D+06 17*0.101330D+06
  GRID BLOCK BRINE SATURATION INITIAL CONDITIONS
  21*0.10000000D+01
  21*0.10000000D+01
  21*0.10000000D+01
  21*0.10000000D+01
  20*0.99964370D+00  0.550000D+00
  20*0.98052838D+00  0.550000D+00
  20*0.87090754D+00  0.550000D+00
  20*0.67549792D+00  0.550000D+00
  21*0.550000D+00
  21*0.550000D+00
  21*0.550000D+00
  21*0.550000D+00
  21*0.550000D+00
  21*0.550000D+00
  21*0.550000D+00
  21*0.550000D+00
  21*0.550000D+00
  21*0.550000D+00
  4*1.0 17*0.5500D+00
  GRID BLOCK FE CONCENTRATION INITIAL CONDITIONS
  399*0.0
  GRID BLOCK CH2O CONCENTRATION INITIAL CONDITIONS
  399*0.0
  GRID BLOCK MGO CONCENTRATION INITIAL CONDITIONS
  399*0.0
  DSATLIM, DPRESLIM, SATLIMIT
    2.0000E-01  -1.0000E+08   1.0000E-03
  SATNORM, PRESNORM: NOMINAL CHANGE DEPENDENT VARIABLE
    3.0000E-01   5.0000E+05
  DDEPMAX(1), DDEPMAX(2)
    1.0000    1.E7
  CONVERGENCE TEST FLAG:  0=OR/1=AND
    1
  EPS_SAT, EPS_PRES:  NORMAL CONVERGENCE CRITERIA
    3.0000E+00   1.0000E-02
  EPS_SAT, EPS_PRES:  LOOSER CONVERGENCE CRITERIA
    3.0000E+00   1.0000E-02
  FTOL_SAT, FTOL_PRES:  NORMAL RESIDUALS TOLERANCE
    1.0000E-02    1.0000E-02
  FTOL_SAT, FTOL_PRES:  LOOSER RESIDUALS TOLERANCE
    1.0000E-02    1.0000E-02
  EPSGAS:  RXN PATH TOLS
    4*1.E-6
  SOLVER TYPE
    LU
  ITMAX, IRESETMAX, IJACINT, SCALING, P_SCALE, LVARSWTCH
    8      40         1        T      1.E7        F
  IUPRPFLAG, IUPMFFLAG, DT_REDU, ITRAVE, IMFAVE
    9          9     5.0000E-01   1      0
  IJACSWITCH, IJACMIN, IJACRESET, IUPRPLOOSE, IUPMFLOOSE
    41          1        5         9          9
  DHSAT_REL, DHPRES_REL: REL. CHANGE FOR JACOBIAN ELEMENT CALCS
    1.0000E-08   1.0000E-08
  DHSAT_MIN, DHPRES_MIN: MIN. CHANGE ALLOWED FOR JACOBIAN CALCS
    1.0000E-10   1.0000E-02
  NUMBER OF TIMES FOR SPECIFYING MATERIAL MAP
  1
  START TIME FOR MAP 1
  0.0
  MATERIAL TYPE GRID MAP
  4*1 17*2
  20*1 2
  20*1 2
  20*1 2
  20*1 2
  20*1 2
  20*1 2
  20*1 2
  20*1 2
  20*1 2
  20*1 2
  20*1 2
  20*1 2
  20*1 2
  20*1 2
  20*1 2
  20*1 2
  20*1 2
  20*1 2
   #     NAME
   1     WASTE
   2     BOUNDARY
  NWST
    0
  NDRZ
    0
  NMATRESET
    0
  MAT_BOREHOLE
    1
  RESET TIME,  ICWASTE
   0.0           0
  POWASTEIC
   0.0
  SOWASTEIC
   0.0
  PRESDRZ
   0.0
  NBORERESET
   0
   #    LAMBDA      SOR      SGR
   1    8.723522E-01 0.55   0.223
   2    1.00E+00    0.0      0.0
   #    SBMIN   POMIN    PCMAX    PCT_A    PCT_EXP  KRP KPC KPT
   1  0.598     1.01330E5  1.E8   0.0      0.0     4    1  0 
   2  0.0       1.01330E5  1.E8   0.0      0.0    10   2   0
   #    PERMX    PERMY      PERMZ   POROSITY   COMPRES
   1 1.0E-18   1.0E-18   1.0E-18   1.337978E-01        0.0
   2 1.0E-18   1.0E-18   1.0E-18   0.005        0.0
  TOL AND SOCEFFMIN FOR PERMEABILITY MODELS 11 & 12
  1.000000E-02 1.000000E-03
  NMATSP, FOR SMOOTH PERMEABILITY TRANSITION MODEL
  0
  FRACTURE MODEL
   F
  KLINKENBERG EFFECT
   F
  GRAVITY CONSTANT (GSTD) AND GAS CONSTANT (R)
   9.80665E+00  8.31451E+00
  REFERENCE TEMPERATURE AND PRESSURE FOR DENSITY CALCULATIONS
   3.00150E+02  1.01325E+05
  SALT(WT.%)  DEN_BR  KGSAT  IDGAS  COMPR_BR WMSALT WMH2O 
  0.0     0.9984E+03    0      0   2.5000E-10 58.442468D-03  18.01528D-03
  VISC_BR   VISC_GAS
   1.0000E-03  17.9E-06
  GAS DENSITY DATA: =0 COMPUTE; =1 INTERPOLATE; =-2 IDEAL GAS LAW
  -2
  GAS MOLE FRACTIONS FOR H2, CO2, CH4, N2, H2S, AND O2
  1.0000E+00 0.0000E+00 0.0000E+00 0.0000E+00 0.0 0.0   
  GAS MOLECULAR WIEGHTS FOR H2, CO2, CH4, N2, H2S, AND O2
  2.01588D-03  44.0098D-03 16.04276D-03  28.01348D-03  34.08188D-03  31.9988D-03
  NUMBER OF GAS COMPONENTS ACTUALL USED (NGAS) AND COMPONET NUMBER (N1GAS)
  1  1
  IGASVAR (1=GENERATION USING REACTION SOURCE; 0= USING WELLS)
  1
  RATE CONSTANTS: CORROSION (RKCOR) AND BIODEGRADATION (RKBIO)
   0.0  0.0  F
  HUMIDITY FACTORS: HUMFAC_COR, HUMFAC_BIO
   0.0   0.0
  RATE CONSTANTS: BRUCITEI, BRUCITEH and HYMAGCON
   0.0  0.0  0.0
  RATE COEFFICIENTS: RXH2S AND RXCO2
  CHEMISTRY CUTOFF SATURATION:  SOCMIN
   0.0
  REACTANT/PRODUCT MOLECULAR WEIGHTS(H2, H2O, Fe, [C6-H10-O5]/6)
   2.01590E-03   1.80150E-02   5.58470E-02   2.70230E-02
  REACTANT/PRODUCT MOLECULAR WEIGHTS(Fe(OH)2, FeS, MgO, Mg(OH)2, Hydro, MgCO3)
   8.98617E-02   8.79000E-02   4.03044E-02   5.83196E-02  4.6764E-01  8.43142E-02
  S_H2,S_H2O,S_Fe,S_Bio,S_FeOH2,S_FeS,S_MgO,S_MgOH2,S_MgCO3
   0.0E+00  0.0E+00  0.0E+00  0.0E+00  0.0E+00  0.0E+00  0.0E+00  0.0E+00  0.0E+00  0.0E+00
   0.0E+00  0.0E+00  0.0E+00  0.0E+00  0.0E+00  0.0E+00  0.0E+00  0.0E+00  0.0E+00  0.0E+00
   0.0E+00  0.0E+00  0.0E+00  0.0E+00  0.0E+00  0.0E+00  0.0E+00  0.0E+00  0.0E+00  0.0E+00
   0.0E+00  0.0E+00  0.0E+00  0.0E+00  0.0E+00  0.0E+00  0.0E+00  0.0E+00  0.0E+00  0.0E+00
   0.0E+00  0.0E+00  0.0E+00  0.0E+00  0.0E+00  0.0E+00  0.0E+00  0.0E+00  0.0E+00  0.0E+00
   0.0E+00  0.0E+00  0.0E+00  0.0E+00  0.0E+00  0.0E+00  0.0E+00  0.0E+00  0.0E+00  0.0E+00
   0.0E+00  0.0E+00  0.0E+00  0.0E+00  0.0E+00  0.0E+00  0.0E+00  0.0E+00  0.0E+00  0.0E+00
   0.0E+00  0.0E+00  0.0E+00  0.0E+00  0.0E+00  0.0E+00  0.0E+00  0.0E+00  0.0E+00  0.0E+00
  REACTANT/PRODUCT DENSITIES (Fe, Fe(OH)2, FeS, [C6-H10-O5]/6)
   7.8700E+03   3.40000E+03   4.70000E+03   1.10000E+03
  REACTANT/PRODUCT DENSITIES (MgO, Mg(OH)2, Hydro, MgCO3, SALT)
   3.6000E+03   2.37000E+03   2.18000E+03   3.05000E+03   2.17000E+03
  WICKING SATN, HUMID SMOOTHING, ALPHARXN
   0.0    F  F  2000.
  WILL CREEP CLOSURE BE ACTIVATED?  IF .TRUE., 0=MOLE-BASED; 1=PRESSURE-BASED
   F     0
  WILL TRANSPORT BE CALCULATED?
   F
  WILL RADIONUCLIDE DECAY BE ACTIVATED?
   F
  RXN PATH?
   F
